@relation tqla2-weka.filters.supervised.attribute.AddClassification-classification-serialized/Users/karanmatnani/Desktop/Watson/qald/wekaPreprocessor/ListModel.model

@attribute List {yes,no}
@attribute who {no,yes}
@attribute what {no,yes}
@attribute when {no,yes}
@attribute where {no}
@attribute which {no,yes}
@attribute how {no,yes}
@attribute city {no,yes}
@attribute state {no,yes}
@attribute country {no,yes}
@attribute '?' {no,yes}
@attribute day {no,yes}
@attribute is {no,yes}
@attribute people {no,yes}
@attribute person {no}
@attribute president {no,yes}
@attribute 'how many' {no,yes}
@attribute 'give me all' {yes,no}
@attribute classification {yes,no}

@data

yes,no,no,no,no,no,no,no,no,no,no,no,no,no,no,no,no,yes,yes
yes,no,no,no,no,no,yes,no,no,no,no,yes,no,no,no,no,no,no,yes
no,yes,no,no,no,no,no,no,no,no,yes,no,no,no,no,no,no,no,no
no,no,no,no,no,yes,no,no,no,no,yes,no,no,no,no,no,no,no,yes
no,no,no,no,no,no,yes,no,no,yes,yes,no,no,no,no,no,yes,no,no
no,no,no,no,no,yes,no,yes,no,no,yes,no,no,no,no,no,no,no,yes
no,no,no,no,no,no,no,no,no,no,yes,no,yes,no,no,yes,no,no,no
yes,no,no,no,no,yes,no,no,yes,no,yes,no,no,no,no,no,no,no,yes
yes,no,no,no,no,yes,no,no,yes,no,yes,no,no,no,no,no,no,no,yes
no,no,no,no,no,yes,no,no,no,yes,yes,no,no,no,no,no,no,no,yes
yes,no,no,no,no,yes,no,no,no,yes,yes,no,no,no,no,no,no,no,yes
no,no,no,no,no,no,no,no,no,no,yes,no,yes,no,no,no,no,no,no
no,no,no,no,no,yes,no,no,no,no,yes,no,no,no,no,no,no,no,yes
no,no,no,no,no,no,yes,no,no,no,yes,no,no,no,no,no,no,no,no
no,yes,no,no,no,no,no,no,no,no,yes,no,no,no,no,no,no,no,no
yes,no,no,no,no,no,no,no,no,yes,no,no,no,no,no,no,no,no,yes
yes,no,no,no,no,no,no,yes,no,no,no,no,no,no,no,no,no,yes,yes
no,no,no,no,no,yes,no,no,no,no,yes,no,no,no,no,no,no,no,yes
no,no,no,no,no,no,no,yes,no,no,yes,no,yes,no,no,no,no,no,no
no,no,no,no,no,no,yes,no,no,no,yes,no,no,no,no,no,yes,no,no
yes,no,no,no,no,yes,no,no,yes,no,yes,no,no,no,no,no,no,no,yes
no,no,no,no,no,yes,no,no,no,yes,yes,no,no,no,no,no,no,no,yes
yes,no,no,no,no,yes,yes,no,no,no,yes,no,no,no,no,no,no,no,yes
no,no,no,no,no,yes,no,no,no,no,yes,no,no,no,no,no,no,no,yes
yes,no,no,no,no,yes,no,no,no,no,yes,no,no,no,no,no,no,no,yes
yes,no,no,no,no,yes,no,no,no,no,yes,no,no,no,no,no,no,no,yes
no,no,no,no,no,no,no,no,no,no,yes,no,no,no,no,yes,no,no,no
yes,no,no,no,no,yes,no,no,no,yes,yes,no,no,no,no,no,no,no,yes
yes,no,no,no,no,yes,no,no,no,no,yes,no,no,no,no,no,no,no,yes
yes,no,no,no,no,yes,no,no,yes,no,yes,no,no,no,no,no,no,no,yes
no,no,yes,no,no,no,no,no,no,no,yes,no,no,no,no,no,no,no,no
yes,no,no,no,no,yes,no,no,no,yes,yes,no,no,no,no,no,no,no,yes
no,no,yes,no,no,no,no,no,no,no,yes,no,no,no,no,no,no,no,no
yes,no,no,no,no,yes,no,no,no,yes,yes,no,no,no,no,no,no,no,yes
no,yes,no,no,no,no,no,no,no,no,yes,no,no,no,no,no,no,no,no
yes,no,no,no,no,yes,no,no,no,yes,yes,no,no,no,no,no,no,no,yes
no,no,no,yes,no,no,no,no,no,no,yes,no,no,no,no,no,no,no,no
yes,no,no,no,no,yes,no,no,no,no,yes,no,no,no,no,no,no,no,yes
no,no,no,yes,no,no,no,no,no,no,yes,no,no,no,no,no,no,no,no
no,no,yes,no,no,no,no,no,no,no,yes,no,no,no,no,no,no,no,no
yes,no,no,no,no,no,no,no,no,no,no,no,no,no,no,no,no,yes,yes
yes,no,yes,no,no,no,no,no,no,no,yes,no,no,no,no,no,no,no,no
no,yes,no,no,no,no,no,yes,no,no,yes,no,no,no,no,no,no,no,no
no,yes,no,no,no,no,no,no,no,no,yes,no,no,no,no,no,no,no,no
yes,no,no,no,no,yes,no,no,no,no,yes,no,no,no,no,no,no,no,yes
no,no,no,no,no,no,no,no,no,no,yes,no,yes,no,no,no,no,no,no
no,no,yes,no,no,no,no,no,no,no,yes,no,no,no,no,no,no,no,no
no,no,no,no,no,no,no,no,no,no,no,no,no,no,no,no,no,no,yes
yes,no,no,no,no,no,no,no,no,no,no,no,no,no,no,no,no,yes,yes
no,no,yes,no,no,no,no,no,no,no,yes,no,no,no,no,no,no,no,no
yes,no,no,no,no,no,no,no,no,no,no,no,no,no,no,no,no,yes,yes
yes,no,no,no,no,yes,no,no,no,no,yes,no,no,no,no,yes,no,no,yes
yes,no,no,no,no,no,no,no,yes,no,no,no,no,no,no,yes,no,yes,yes
no,yes,no,no,no,no,no,no,no,no,yes,no,no,no,no,yes,no,no,no
no,yes,no,no,no,no,no,no,no,no,yes,no,no,no,no,no,no,no,no
no,no,yes,no,no,no,no,no,no,no,yes,no,no,no,no,no,no,no,no
yes,no,no,no,no,no,no,no,no,no,no,no,no,no,no,no,no,no,yes
no,yes,no,no,no,no,no,no,no,no,yes,no,no,no,no,no,no,no,no
yes,no,no,no,no,no,no,no,no,no,no,no,no,yes,no,no,no,yes,yes
no,no,no,no,no,no,no,no,no,no,yes,no,yes,no,no,no,no,no,no
yes,no,no,no,no,yes,no,no,no,no,yes,no,no,no,no,no,no,no,yes
no,yes,no,no,no,no,no,no,no,no,yes,no,no,no,no,no,no,no,no
yes,no,no,no,no,no,no,no,no,no,no,no,no,no,no,no,no,yes,yes
yes,no,no,no,no,yes,no,no,no,no,yes,no,no,no,no,no,no,no,yes
yes,no,no,no,no,yes,no,no,no,no,yes,no,no,no,no,no,no,no,yes
no,no,no,no,no,no,no,no,no,no,yes,no,yes,no,no,no,no,no,no
yes,no,no,no,no,no,no,no,no,no,no,no,no,no,no,no,no,no,yes
yes,no,no,no,no,yes,no,no,no,no,yes,no,no,no,no,no,no,no,yes
yes,no,no,no,no,yes,no,no,no,no,yes,no,no,no,no,no,no,no,yes
yes,no,no,no,no,no,no,no,no,no,no,no,no,no,no,no,no,yes,yes
yes,no,no,no,no,no,no,no,no,no,no,no,no,no,no,no,no,yes,yes
yes,no,no,no,no,yes,no,no,no,no,yes,no,no,no,no,no,no,no,yes
no,yes,no,no,no,no,no,no,no,no,yes,no,no,no,no,no,no,no,no
yes,no,no,no,no,yes,no,yes,no,no,yes,no,no,no,no,no,no,no,yes
no,yes,no,no,no,no,no,no,yes,no,yes,no,no,no,no,yes,no,no,no
no,no,no,no,no,no,yes,no,no,no,yes,no,no,no,no,no,yes,no,no
yes,no,no,no,no,yes,no,no,no,no,yes,no,no,no,no,no,no,no,yes
yes,no,no,no,no,no,no,no,no,no,no,no,no,no,no,no,no,yes,yes
yes,no,no,no,no,yes,no,no,no,no,yes,no,no,no,no,no,no,no,yes
yes,no,no,no,no,no,no,no,no,no,no,no,no,no,no,no,no,yes,yes
no,no,no,no,no,yes,no,no,no,yes,yes,no,no,no,no,no,no,no,yes
no,no,no,no,no,yes,no,no,no,no,yes,no,no,no,no,no,no,no,yes
yes,yes,no,no,no,no,no,no,no,no,yes,no,no,no,no,no,no,no,no
yes,no,no,no,no,no,no,no,no,no,no,no,no,no,no,no,no,yes,yes
yes,no,no,no,no,yes,no,no,no,no,yes,no,no,no,no,no,no,no,yes
yes,no,no,no,no,no,no,no,no,no,no,no,no,no,no,no,no,yes,yes
no,yes,no,no,no,no,no,no,no,no,yes,no,no,no,no,no,no,no,no
no,no,no,no,no,no,yes,no,no,no,yes,no,no,no,no,no,yes,no,no
yes,no,no,no,no,no,no,no,no,no,no,no,no,no,no,no,no,yes,yes
no,no,no,yes,no,no,no,no,no,no,yes,no,no,no,no,no,no,no,no
yes,no,no,no,no,yes,no,no,no,no,yes,no,no,no,no,no,no,no,yes
no,no,yes,no,no,no,no,no,no,no,yes,no,no,no,no,no,no,no,no
no,no,no,no,no,no,no,no,yes,no,yes,no,no,no,no,no,no,no,no
no,no,no,no,no,yes,no,no,no,no,yes,no,no,no,no,no,no,no,yes
no,no,no,no,no,no,yes,no,no,no,yes,no,no,no,no,no,yes,no,no
no,no,no,no,no,no,no,no,no,no,yes,no,yes,no,no,no,no,no,no
no,no,no,no,no,no,yes,no,no,no,yes,no,no,no,no,no,no,no,no
yes,no,yes,no,no,no,no,no,no,no,yes,no,no,no,no,no,no,no,no
yes,no,no,no,no,no,no,no,no,no,no,no,no,no,no,no,no,yes,yes
