Type,who,what,when,where,which,how,city,state,country,?,day,is,people,person,president,how many,give me all,was,did
person,no,no,no,no,no,no,no,no,no,no,no,no,no,no,no,no,yes,no,no
date,no,no,no,no,no,yes,no,no,no,no,yes,no,no,no,no,no,no,no,no
person,yes,no,no,no,no,no,no,no,no,yes,no,no,no,no,no,no,no,no,no
object,no,no,no,no,yes,no,no,no,no,yes,no,no,no,no,no,no,no,no,no
number,no,no,no,no,no,yes,no,no,yes,yes,no,no,no,no,no,yes,no,no,no
place,no,no,no,no,yes,no,yes,no,no,yes,no,no,no,no,no,no,no,no,no
boolean,no,no,no,no,no,no,no,no,no,yes,no,yes,no,no,yes,no,no,no,no
place,no,no,no,no,yes,no,no,yes,no,yes,no,no,no,no,no,no,no,no,no
place,no,no,no,no,yes,no,no,yes,no,yes,no,no,no,no,no,no,no,no,no
place,no,no,no,no,yes,no,no,no,yes,yes,no,no,no,no,no,no,no,no,no
place,no,no,no,no,yes,no,no,no,yes,yes,no,no,no,no,no,no,no,no,no
boolean,no,no,no,no,no,no,no,no,no,yes,no,yes,no,no,no,no,no,no,no
object,no,no,no,no,yes,no,no,no,no,yes,no,no,no,no,no,no,no,no,no
number,no,no,no,no,no,yes,no,no,no,yes,no,no,no,no,no,no,no,no,no
person,yes,no,no,no,no,no,no,no,no,yes,no,no,no,no,no,no,no,no,no
place,no,no,no,no,no,no,no,no,yes,no,no,no,no,no,no,no,no,no,no
place,no,no,no,no,no,no,yes,no,no,no,no,no,no,no,no,no,yes,no,no
object,no,no,no,no,yes,no,no,no,no,yes,no,no,no,no,no,no,no,no,no
boolean,no,no,no,no,no,no,yes,no,no,yes,no,yes,no,no,no,no,no,no,no
number,no,no,no,no,no,yes,no,no,no,yes,no,no,no,no,no,yes,no,no,no
place,no,no,no,no,yes,no,no,yes,no,yes,no,no,no,no,no,no,no,no,no
place,no,no,no,no,yes,no,no,no,yes,yes,no,no,no,no,no,no,no,no,no
object,no,no,no,no,yes,yes,no,no,no,yes,no,no,no,no,no,no,no,no,no
object,no,no,no,no,yes,no,no,no,no,yes,no,no,no,no,no,no,no,no,no
object,no,no,no,no,yes,no,no,no,no,yes,no,no,no,no,no,no,no,no,no
object,no,no,no,no,yes,no,no,no,no,yes,no,no,no,no,no,no,no,no,no
boolean,no,no,no,no,no,no,no,no,no,yes,no,no,no,no,yes,no,no,yes,no
place,no,no,no,no,yes,no,no,no,yes,yes,no,no,no,no,no,no,no,no,no
object,no,no,no,no,yes,no,no,no,no,yes,no,no,no,no,no,no,no,no,no
place,no,no,no,no,yes,no,no,yes,no,yes,no,no,no,no,no,no,no,no,no
object,no,yes,no,no,no,no,no,no,no,yes,no,no,no,no,no,no,no,no,no
place,no,no,no,no,yes,no,no,no,yes,yes,no,no,no,no,no,no,no,no,no
number,no,yes,no,no,no,no,no,no,no,yes,no,no,no,no,no,no,no,no,no
place,no,no,no,no,yes,no,no,no,yes,yes,no,no,no,no,no,no,no,no,no
person,yes,no,no,no,no,no,no,no,no,yes,no,no,no,no,no,no,no,no,no
place,no,no,no,no,yes,no,no,no,yes,yes,no,no,no,no,no,no,no,no,no
date,no,no,yes,no,no,no,no,no,no,yes,no,no,no,no,no,no,no,no,no
person,no,no,no,no,yes,no,no,no,no,yes,no,no,no,no,no,no,no,no,no
date,no,no,yes,no,no,no,no,no,no,yes,no,no,no,no,no,no,no,no,no
object,no,yes,no,no,no,no,no,no,no,yes,no,no,no,no,no,no,no,no,no
object,no,no,no,no,no,no,no,no,no,no,no,no,no,no,no,no,yes,no,no
object,no,yes,no,no,no,no,no,no,no,yes,no,no,no,no,no,no,no,no,no
person,yes,no,no,no,no,no,yes,no,no,yes,no,no,no,no,no,no,no,no,no
person,yes,no,no,no,no,no,no,no,no,yes,no,no,no,no,no,no,no,no,no
object,no,no,no,no,yes,no,no,no,no,yes,no,no,no,no,no,no,no,no,no
boolean,no,no,no,no,no,no,no,no,no,yes,no,yes,no,no,no,no,no,no,no
place,no,yes,no,no,no,no,no,no,no,yes,no,no,no,no,no,no,no,no,no
object,no,no,no,no,no,no,no,no,no,no,no,no,no,no,no,no,no,no,no
object,no,no,no,no,no,no,no,no,no,no,no,no,no,no,no,no,yes,no,no
object,no,yes,no,no,no,no,no,no,no,yes,no,no,no,no,no,no,no,no,no
object,no,no,no,no,no,no,no,no,no,no,no,no,no,no,no,no,yes,no,no
person,no,no,no,no,yes,no,no,no,no,yes,no,no,no,no,yes,no,no,no,no
person,no,no,no,no,no,no,no,yes,no,no,no,no,no,no,yes,no,yes,no,no
person,yes,no,no,no,no,no,no,no,no,yes,no,no,no,no,yes,no,no,no,no
person,yes,no,no,no,no,no,no,no,no,yes,no,no,no,no,no,no,no,no,no
object,no,yes,no,no,no,no,no,no,no,yes,no,no,no,no,no,no,no,no,no
object,no,no,no,no,no,no,no,no,no,no,no,no,no,no,no,no,no,no,no
person,yes,no,no,no,no,no,no,no,no,yes,no,no,no,no,no,no,no,no,no
person,no,no,no,no,no,no,no,no,no,no,no,no,yes,no,no,no,yes,no,no
boolean,no,no,no,no,no,no,no,no,no,yes,no,yes,no,no,no,no,no,no,no
object,no,no,no,no,yes,no,no,no,no,yes,no,no,no,no,no,no,no,no,no
person,yes,no,no,no,no,no,no,no,no,yes,no,no,no,no,no,no,no,no,no
person,no,no,no,no,no,no,no,no,no,no,no,no,no,no,no,no,yes,no,no
object,no,no,no,no,yes,no,no,no,no,yes,no,no,no,no,no,no,no,no,no
object,no,no,no,no,yes,no,no,no,no,yes,no,no,no,no,no,no,no,no,no
boolean,no,no,no,no,no,no,no,no,no,yes,no,yes,no,no,no,no,no,no,no
object,no,no,no,no,no,no,no,no,no,no,no,no,no,no,no,no,no,no,no
person,no,no,no,no,yes,no,no,no,no,yes,no,no,no,no,no,no,no,no,no
object,no,no,no,no,yes,no,no,no,no,yes,no,no,no,no,no,no,no,no,no
object,no,no,no,no,no,no,no,no,no,no,no,no,no,no,no,no,yes,no,no
object,no,no,no,no,no,no,no,no,no,no,no,no,no,no,no,no,yes,no,no
object,no,no,no,no,yes,no,no,no,no,yes,no,no,no,no,no,no,no,no,no
person,yes,no,no,no,no,no,no,no,no,yes,no,no,no,no,no,no,no,no,no
place,no,no,no,no,yes,no,yes,no,no,yes,no,no,no,no,no,no,no,no,no
person,yes,no,no,no,no,no,no,yes,no,yes,no,no,no,no,yes,no,no,no,no
number,no,no,no,no,no,yes,no,no,no,yes,no,no,no,no,no,yes,no,no,no
object,no,no,no,no,yes,no,no,no,no,yes,no,no,no,no,no,no,no,no,no
object,no,no,no,no,no,no,no,no,no,no,no,no,no,no,no,no,yes,no,no
object,no,no,no,no,yes,no,no,no,no,yes,no,no,no,no,no,no,no,no,no
object,no,no,no,no,no,no,no,no,no,no,no,no,no,no,no,no,yes,no,no
place,no,no,no,no,yes,no,no,no,yes,yes,no,no,no,no,no,no,no,no,no
object,no,no,no,no,yes,no,no,no,no,yes,no,no,no,no,no,no,no,no,no
person,yes,no,no,no,no,no,no,no,no,yes,no,no,no,no,no,no,no,no,no
object,no,no,no,no,no,no,no,no,no,no,no,no,no,no,no,no,yes,no,no
object,no,no,no,no,yes,no,no,no,no,yes,no,no,no,no,no,no,no,no,no
person,no,no,no,no,no,no,no,no,no,no,no,no,no,no,no,no,yes,no,no
person,yes,no,no,no,no,no,no,no,no,yes,no,no,no,no,no,no,no,no,no
number,no,no,no,no,no,yes,no,no,no,yes,no,no,no,no,no,yes,no,no,no
object,no,no,no,no,no,no,no,no,no,no,no,no,no,no,no,no,yes,no,no
date,no,no,yes,no,no,no,no,no,no,yes,no,no,no,no,no,no,no,no,no
object,no,no,no,no,yes,no,no,no,no,yes,no,no,no,no,no,no,no,no,no
object,no,yes,no,no,no,no,no,no,no,yes,no,no,no,no,no,no,no,no,no
boolean,no,no,no,no,no,no,no,yes,no,yes,no,no,no,no,no,no,no,yes,no
number,no,no,no,no,yes,no,no,no,no,yes,no,no,no,no,no,no,no,no,no
number,no,no,no,no,no,yes,no,no,no,yes,no,no,no,no,no,yes,no,no,no
boolean,no,no,no,no,no,no,no,no,no,yes,no,yes,no,no,no,no,no,no,no
number,no,no,no,no,no,yes,no,no,no,yes,no,no,no,no,no,no,no,no,no
object,no,yes,no,no,no,no,no,no,no,yes,no,no,no,no,no,no,no,no,no
object,no,no,no,no,no,no,no,no,no,no,no,no,no,no,no,no,yes,no,no
