@relation listTest.txt

@attribute List numeric
@attribute who {no,yes}
@attribute what {no,yes}
@attribute when {no,yes}
@attribute where {no,yes}
@attribute which {yes,no}
@attribute how {no,yes}
@attribute city {yes,no}
@attribute state {no,yes}
@attribute country {no,yes}
@attribute '?' {yes,no}
@attribute day {no}
@attribute is {no,yes}
@attribute people {no,yes}
@attribute person {no}
@attribute president {no}
@attribute 'how many' {no,yes}
@attribute 'give me all' {no,yes}
@attribute was {no,yes}
@attribute did {no,yes}

@data
?,no,no,no,no,yes,no,yes,no,no,yes,no,no,no,no,no,no,no,no,no
?,yes,no,no,no,no,no,no,no,no,yes,no,no,no,no,no,no,no,no,no
?,yes,no,no,no,no,no,no,no,no,yes,no,no,no,no,no,no,no,no,no
?,no,no,no,no,no,yes,no,no,no,yes,no,no,no,no,no,yes,no,no,no
?,no,yes,no,no,no,no,no,no,no,yes,no,no,no,no,no,no,no,no,no
?,no,no,no,no,no,no,no,no,no,no,no,no,no,no,no,no,yes,no,no
?,no,no,yes,no,no,no,no,no,no,yes,no,no,no,no,no,no,no,no,no
?,no,no,no,no,yes,no,no,no,yes,yes,no,no,no,no,no,no,no,no,no
?,no,no,no,no,no,no,no,no,no,no,no,no,no,no,no,no,no,no,no
?,no,yes,no,no,no,no,no,no,no,yes,no,no,no,no,no,no,no,no,no
?,yes,no,no,no,no,no,no,no,no,yes,no,no,no,no,no,no,no,no,no
?,no,no,no,no,no,no,no,no,no,no,no,no,no,no,no,no,yes,no,no
?,yes,no,no,no,no,no,no,no,no,yes,no,no,no,no,no,no,no,no,no
?,no,no,no,no,no,no,no,no,no,no,no,no,no,no,no,no,yes,no,no
?,no,yes,no,no,no,no,no,no,no,yes,no,no,no,no,no,no,no,no,no
?,no,no,no,no,no,no,no,no,no,yes,no,no,no,no,no,no,no,no,no
?,no,no,no,no,no,no,no,no,no,no,no,no,no,no,no,no,yes,no,no
?,no,no,no,no,no,no,no,no,no,no,no,no,no,no,no,no,no,no,no
?,no,no,no,no,no,no,no,no,no,no,no,no,yes,no,no,no,yes,no,no
?,no,no,no,no,no,yes,no,no,no,yes,no,no,no,no,no,no,no,no,no
?,no,yes,no,no,no,no,no,no,no,yes,no,no,no,no,no,no,no,no,no
?,yes,no,no,no,no,no,no,no,no,yes,no,no,no,no,no,no,no,no,no
?,no,no,no,no,no,no,no,no,no,yes,no,no,no,no,no,no,no,no,no
?,yes,no,no,no,no,no,no,no,no,yes,no,no,no,no,no,no,no,no,no
?,no,no,no,no,yes,no,no,yes,no,yes,no,no,no,no,no,no,no,no,no
?,no,no,no,no,no,yes,no,no,no,yes,no,no,no,no,no,yes,no,no,no
?,no,no,no,no,yes,no,no,yes,no,yes,no,no,no,no,no,no,no,no,no
?,no,no,no,no,no,no,no,no,no,no,no,no,no,no,no,no,yes,no,no
?,no,no,no,no,no,no,no,no,no,no,no,no,no,no,no,no,yes,no,no
?,no,yes,no,no,no,no,no,no,no,yes,no,no,no,no,no,no,no,no,no
?,no,no,no,no,no,no,no,no,no,no,no,no,no,no,no,no,yes,no,no
?,no,no,no,no,no,yes,no,no,no,yes,no,no,no,no,no,no,no,no,no
?,no,no,no,no,no,no,no,no,no,no,no,no,no,no,no,no,yes,no,no
?,no,no,no,no,yes,no,no,no,no,yes,no,no,no,no,no,no,no,no,no
?,yes,no,no,no,no,no,no,no,no,yes,no,no,no,no,no,no,no,no,no
?,no,yes,no,no,no,no,no,no,no,yes,no,no,no,no,no,no,no,no,no
?,no,no,no,no,no,no,yes,no,no,no,no,no,no,no,no,no,yes,no,no
?,no,no,no,no,no,yes,no,no,no,yes,no,no,no,no,no,yes,no,no,no
?,no,no,no,no,no,no,no,no,no,no,no,no,no,no,no,no,yes,no,no
?,no,no,no,no,no,no,no,no,no,no,no,no,no,no,no,no,no,no,no
?,yes,no,no,no,no,no,no,no,no,yes,no,no,no,no,no,no,no,no,no
?,yes,no,no,no,no,no,no,no,no,yes,no,no,no,no,no,no,no,no,no
?,no,no,no,no,no,no,no,no,no,no,no,no,no,no,no,no,yes,no,no
?,no,no,no,no,yes,no,yes,no,no,yes,no,no,no,no,no,no,no,no,no
?,no,no,no,no,yes,no,no,no,yes,yes,no,no,no,no,no,no,no,no,no
?,no,no,no,no,yes,no,no,no,no,yes,no,no,no,no,no,no,no,no,no
?,no,yes,no,no,no,no,no,no,no,yes,no,no,no,no,no,no,no,no,no
?,no,no,no,no,yes,no,yes,no,no,yes,no,no,no,no,no,no,no,no,no
?,no,no,no,no,yes,no,no,no,no,yes,no,no,no,no,no,no,no,no,no
?,no,no,no,no,no,no,no,no,no,yes,no,no,no,no,no,no,no,yes,no
?,no,no,no,no,no,no,no,no,no,no,no,no,no,no,no,no,yes,no,no
?,yes,no,no,no,no,no,no,no,no,yes,no,no,no,no,no,no,no,no,no
?,no,yes,no,no,no,no,no,no,no,yes,no,no,no,no,no,no,no,no,no
?,no,yes,no,no,no,no,no,no,no,yes,no,no,no,no,no,no,no,no,no
?,no,no,no,no,yes,no,no,no,no,yes,no,no,no,no,no,no,no,no,no
?,no,no,yes,no,no,no,no,no,no,yes,no,no,no,no,no,no,no,no,no
?,no,no,no,no,no,no,no,no,no,no,no,no,no,no,no,no,no,no,no
?,no,yes,no,no,no,no,yes,no,no,yes,no,no,no,no,no,no,no,no,no
?,no,no,no,no,yes,no,no,yes,no,yes,no,no,no,no,no,no,no,no,no
?,no,no,no,no,no,no,no,no,no,no,no,no,no,no,no,no,no,no,no
?,no,no,no,no,no,yes,no,no,no,yes,no,no,no,no,no,yes,no,no,no
?,no,no,no,no,no,no,no,no,no,yes,no,no,no,no,no,no,no,no,yes
?,no,no,no,no,no,no,no,no,no,no,no,no,no,no,no,no,yes,no,no
?,no,no,no,no,no,no,no,no,no,no,no,no,no,no,no,no,yes,no,no
?,no,no,no,no,yes,no,no,no,no,yes,no,no,no,no,no,no,no,no,no
?,no,no,no,no,yes,no,no,no,no,yes,no,no,no,no,no,no,no,no,no
?,yes,no,no,no,no,no,no,no,no,yes,no,no,no,no,no,no,no,no,no
?,no,no,no,no,no,yes,no,no,no,yes,no,no,no,no,no,yes,no,no,no
?,no,no,no,no,no,no,no,no,no,yes,no,no,no,no,no,no,no,no,yes
?,no,no,no,no,no,no,no,no,no,yes,no,yes,no,no,no,no,no,no,no
?,no,no,yes,no,no,no,no,no,no,yes,no,no,no,no,no,no,no,no,no
?,no,no,no,no,yes,no,no,yes,no,yes,no,no,no,no,no,no,no,no,no
?,no,no,no,no,no,yes,no,no,no,yes,no,no,no,no,no,yes,no,no,no
?,no,no,yes,no,no,no,no,no,no,yes,no,no,no,no,no,no,no,no,no
?,no,no,no,no,yes,no,no,no,no,yes,no,no,no,no,no,no,no,no,no
?,no,no,no,no,no,no,no,no,no,no,no,no,no,no,no,no,no,no,no
?,yes,no,no,no,no,no,no,no,no,yes,no,no,no,no,no,no,no,no,no
?,no,no,no,no,no,no,no,no,no,yes,no,no,no,no,no,no,no,yes,no
?,no,no,no,no,no,no,no,no,no,yes,no,no,no,no,no,no,no,yes,no
?,no,no,no,no,no,no,no,no,no,no,no,no,no,no,no,no,yes,no,no
?,no,no,no,no,yes,no,no,no,no,yes,no,no,no,no,no,no,no,no,no
?,no,no,no,no,no,no,no,no,no,no,no,no,no,no,no,no,no,no,no
?,no,no,no,no,no,yes,no,no,no,yes,no,no,no,no,no,no,no,no,no
?,yes,no,no,no,no,no,no,no,no,yes,no,no,no,no,no,no,no,no,no
?,no,no,no,no,no,yes,no,no,no,yes,no,no,yes,no,no,yes,no,no,no
?,no,yes,no,no,no,no,yes,no,no,yes,no,no,no,no,no,no,no,no,no
?,yes,no,no,no,no,no,no,no,no,yes,no,no,no,no,no,no,no,no,no
?,no,no,no,no,yes,no,no,no,no,yes,no,no,no,no,no,no,no,no,no
?,no,no,no,no,yes,no,yes,no,no,yes,no,no,no,no,no,no,no,no,no
?,no,no,no,yes,no,no,no,no,no,yes,no,no,no,no,no,no,no,no,no
?,no,no,no,no,yes,no,no,yes,no,yes,no,no,no,no,no,no,no,no,no
?,no,no,no,no,no,yes,no,no,no,no,no,no,no,no,no,no,no,no,no
?,no,no,no,no,yes,no,no,no,no,yes,no,no,no,no,no,no,no,no,no
?,no,yes,no,no,no,no,no,no,no,yes,no,no,no,no,no,no,no,no,no
?,yes,no,no,no,no,no,no,no,no,yes,no,no,no,no,no,no,no,no,no
?,no,no,no,no,no,no,no,no,no,no,no,no,no,no,no,no,yes,no,no
?,yes,no,no,no,no,no,no,no,no,yes,no,no,no,no,no,no,no,no,no
?,no,no,no,no,yes,no,no,no,yes,yes,no,no,no,no,no,no,no,no,no
?,no,no,no,no,yes,no,no,no,no,yes,no,no,no,no,no,no,no,no,no
